#1
char Aclass(3,11)
Atrajectory
1.1

char name(39,31)
time
_block_jacobian_check_tol
_cs_rel_tol
_cs_step_size
_events_default_tol
_events_tol_factor
_nle_solver_default_tol
_nle_solver_min_tol
_nle_solver_tol_factor
r
temp_2
temp_3
is[1]
is[2]
is[3]
is[4]
is[5]
is[6]
is[7]
is[8]
is[9]
is[10]
_block_solver_experimental_mode
_cs_solver
_iteration_variable_scaling
_log_level
_nle_solver_log_level
_nle_solver_max_iter
_residual_equation_scaling
n
temp_1
_block_jacobian_check
_enforce_bounds
_nle_solver_check_jac_cond
_rescale_after_singular_jac
_rescale_each_step
_runtime_log_to_file
_use_Brent_in_1d
_use_jacobian_equilibration

char description(39,11)
Time in [s]







































int dataInfo(39,4)
0 1 0 -1 # time
1 2 0 -1 # _block_jacobian_check_tol
1 3 0 -1 # _cs_rel_tol
1 4 0 -1 # _cs_step_size
1 5 0 -1 # _events_default_tol
1 6 0 -1 # _events_tol_factor
1 7 0 -1 # _nle_solver_default_tol
1 8 0 -1 # _nle_solver_min_tol
1 9 0 -1 # _nle_solver_tol_factor
2 2 0 -1 # r
2 3 0 -1 # temp_2
2 4 0 -1 # temp_3
1 10 0 -1 # is[1]
1 11 0 -1 # is[2]
1 12 0 -1 # is[3]
1 13 0 -1 # is[4]
1 14 0 -1 # is[5]
1 15 0 -1 # is[6]
1 16 0 -1 # is[7]
1 17 0 -1 # is[8]
1 18 0 -1 # is[9]
1 19 0 -1 # is[10]
1 20 0 -1 # _block_solver_experimental_mode
1 21 0 -1 # _cs_solver
1 22 0 -1 # _iteration_variable_scaling
1 23 0 -1 # _log_level
1 24 0 -1 # _nle_solver_log_level
1 25 0 -1 # _nle_solver_max_iter
1 26 0 -1 # _residual_equation_scaling
2 5 0 -1 # n
2 6 0 -1 # temp_1
1 27 0 -1 # _block_jacobian_check
1 28 0 -1 # _enforce_bounds
1 29 0 -1 # _nle_solver_check_jac_cond
1 30 0 -1 # _rescale_after_singular_jac
1 31 0 -1 # _rescale_each_step
1 32 0 -1 # _runtime_log_to_file
1 33 0 -1 # _use_Brent_in_1d
1 34 0 -1 # _use_jacobian_equilibration

float data_1(2,34)
0.00000000000000E+00 1.00000000000000E-06 1.00000000000000E-06 1.00000000000000E-03 1.00000000000000E-10 1.00000000000000E-04 1.00000000000000E-10 1.00000000000000E-12 1.00000000000000E-04 3.00000000000000E+00 6.00000000000000E+00 4.00000000000000E+00 2.00000000000000E+00 -1.00000000000000E+00 8.00000000000000E+00 -1.00000000000000E+01 1.00000000000000E+01 -2.00000000000000E+01 3.70000000000000E+01 0.00000000000000E+00 0.00000000000000E+00 1.00000000000000E+00 3.00000000000000E+00 0.00000000000000E+00 1.00000000000000E+02 1.00000000000000E+00 0.00000000000000E+00 0.00000000000000E+00 0.00000000000000E+00 1.00000000000000E+00 0.00000000000000E+00 0.00000000000000E+00 0.00000000000000E+00 0.00000000000000E+00
2.00000000000000E+00         1.00000000000000E-06 1.00000000000000E-06 1.00000000000000E-03 1.00000000000000E-10 1.00000000000000E-04 1.00000000000000E-10 1.00000000000000E-12 1.00000000000000E-04 3.00000000000000E+00 6.00000000000000E+00 4.00000000000000E+00 2.00000000000000E+00 -1.00000000000000E+00 8.00000000000000E+00 -1.00000000000000E+01 1.00000000000000E+01 -2.00000000000000E+01 3.70000000000000E+01 0.00000000000000E+00 0.00000000000000E+00 1.00000000000000E+00 3.00000000000000E+00 0.00000000000000E+00 1.00000000000000E+02 1.00000000000000E+00 0.00000000000000E+00 0.00000000000000E+00 0.00000000000000E+00 1.00000000000000E+00 0.00000000000000E+00 0.00000000000000E+00 0.00000000000000E+00 0.00000000000000E+00

float data_2(72,6)                           
 0.00000000000000E+00 3.70541509232111E+00 0.00000000000000E+00 -1.00000000000000E+00 1.00000000000000E+01 0.00000000000000E+00
 5.00000000000000E-02 3.70541509232111E+00 5.00000000000000E-01 -5.00000000000000E-01 1.00000000000000E+01 0.00000000000000E+00
 1.00000000000000E-01 3.70541509232111E+00 1.00000000000000E+00 0.00000000000000E+00 1.00000000000000E+01 0.00000000000000E+00
 1.00000000000000E-01 3.70541509232111E+00 1.00000000000000E+00 8.88178419700125E-16 1.00000000000000E+01 0.00000000000000E+00
 1.00000000000000E-01 3.36770352634546E+00 8.88178419700125E-16 -9.99999999999999E-01 1.10000000000000E+01 1.00000000000000E+00
 1.50000000000000E-01 3.36770352634546E+00 5.00000000000000E-01 -5.00000000000000E-01 1.10000000000000E+01 1.00000000000000E+00
 2.00000000000000E-01 3.36770352634546E+00 1.00000000000000E+00 0.00000000000000E+00 1.10000000000000E+01 1.00000000000000E+00
 2.00000000000016E-01 3.36770352634546E+00 1.00000000000016E+00 1.57207580286922E-13 1.10000000000000E+01 1.00000000000000E+00
 2.00000000000016E-01 3.08646533939727E+00 1.57207580286922E-13 -9.99999999999843E-01 1.20000000000000E+01 2.00000000000000E+00
 2.50000000000000E-01 3.08646533939727E+00 5.00000000000000E-01 -5.00000000000000E-01 1.20000000000000E+01 2.00000000000000E+00
 3.00000000000000E-01 3.08646533939727E+00 1.00000000000000E+00 4.44089209850063E-16 1.20000000000000E+01 2.00000000000000E+00
 3.00000000000016E-01 3.08646533939727E+00 1.00000000000016E+00 1.62536650805123E-13 1.20000000000000E+01 2.00000000000000E+00
 3.00000000000016E-01 2.84861679917061E+00 1.62536650805123E-13 -9.99999999999837E-01 1.30000000000000E+01 3.00000000000000E+00
 3.50000000000000E-01 2.84861679917061E+00 5.00000000000000E-01 -5.00000000000000E-01 1.30000000000000E+01 3.00000000000000E+00
 4.00000000000000E-01 2.84861679917061E+00 1.00000000000000E+00 0.00000000000000E+00 1.30000000000000E+01 3.00000000000000E+00
 4.00000000000017E-01 2.84861679917061E+00 1.00000000000017E+00 1.66977542903624E-13 1.30000000000000E+01 3.00000000000000E+00
 4.00000000000017E-01 2.64482883279053E+00 1.66977542903624E-13 -9.99999999999833E-01 1.40000000000000E+01 4.00000000000000E+00
 4.50000000000000E-01 2.64482883279053E+00 5.00000000000000E-01 -5.00000000000000E-01 1.40000000000000E+01 4.00000000000000E+00
 5.00000000000000E-01 2.64482883279053E+00 1.00000000000000E+00 0.00000000000000E+00 1.40000000000000E+01 4.00000000000000E+00
 5.00000000000000E-01 2.46826953497613E+00 0.00000000000000E+00 -1.00000000000000E+00 1.50000000000000E+01 5.00000000000000E+00
 5.50000000000000E-01 2.46826953497613E+00 5.00000000000000E-01 -5.00000000000000E-01 1.50000000000000E+01 5.00000000000000E+00
 6.00000000000000E-01 2.46826953497613E+00 1.00000000000000E+00 0.00000000000000E+00 1.50000000000000E+01 5.00000000000000E+00
 6.00000000000000E-01 2.31382059577461E+00 0.00000000000000E+00 -1.00000000000000E+00 1.60000000000000E+01 6.00000000000000E+00
 6.00000000000000E-01 2.31382059577461E+00 8.88178419700125E-16 -9.99999999999999E-01 1.60000000000000E+01 6.00000000000000E+00
 6.50000000000000E-01 2.31382059577461E+00 5.00000000000000E-01 -5.00000000000000E-01 1.60000000000000E+01 6.00000000000000E+00
 7.00000000000000E-01 2.31382059577461E+00 1.00000000000000E+00 0.00000000000000E+00 1.60000000000000E+01 6.00000000000000E+00
 7.00000000000000E-01 2.17757148985474E+00 0.00000000000000E+00 -1.00000000000000E+00 1.70000000000000E+01 7.00000000000000E+00
 7.00000000000000E-01 2.17757148985474E+00 8.88178419700125E-16 -9.99999999999999E-01 1.70000000000000E+01 7.00000000000000E+00
 7.50000000000000E-01 2.17757148985474E+00 5.00000000000000E-01 -5.00000000000000E-01 1.70000000000000E+01 7.00000000000000E+00
 8.00000000000000E-01 2.17757148985474E+00 1.00000000000000E+00 0.00000000000000E+00 1.70000000000000E+01 7.00000000000000E+00
 8.00000000000019E-01 2.17757148985474E+00 1.00000000000019E+00 1.86517468137026E-13 1.70000000000000E+01 7.00000000000000E+00
 8.00000000000019E-01 2.05648291652131E+00 1.86517468137026E-13 -9.99999999999813E-01 1.80000000000000E+01 8.00000000000000E+00
 8.50000000000000E-01 2.05648291652131E+00 5.00000000000000E-01 -5.00000000000000E-01 1.80000000000000E+01 8.00000000000000E+00
 9.00000000000000E-01 2.05648291652131E+00 1.00000000000000E+00 0.00000000000000E+00 1.80000000000000E+01 8.00000000000000E+00
 9.00000000000000E-01 1.94815688355789E+00 0.00000000000000E+00 -1.00000000000000E+00 1.90000000000000E+01 9.00000000000000E+00
 9.00000000000000E-01 1.94815688355789E+00 0.00000000000000E+00 -1.00000000000000E+00 1.90000000000000E+01 9.00000000000000E+00
 9.50000000000000E-01 1.94815688355789E+00 5.00000000000000E-01 -5.00000000000000E-01 1.90000000000000E+01 9.00000000000000E+00
 1.00000000000000E+00 1.94815688355789E+00 1.00000000000000E+00 0.00000000000000E+00 1.90000000000000E+01 9.00000000000000E+00
 1.00000000000000E+00 1.85067597553232E+00 0.00000000000000E+00 -1.00000000000000E+00 2.00000000000000E+01 1.00000000000000E+01
 1.05000000000000E+00 1.85067597553232E+00 5.00000000000000E-01 -5.00000000000000E-01 2.00000000000000E+01 1.00000000000000E+01
 1.10000000000000E+00 1.85067597553232E+00 1.00000000000000E+00 0.00000000000000E+00 2.00000000000000E+01 1.00000000000000E+01
 1.10000000000000E+00 1.76248867083421E+00 0.00000000000000E+00 -1.00000000000000E+00 2.10000000000000E+01 1.10000000000000E+01
 1.15000000000000E+00 1.76248867083421E+00 5.00000000000002E-01 -4.99999999999998E-01 2.10000000000000E+01 1.10000000000000E+01
 1.20000000000000E+00 1.76248867083421E+00 1.00000000000000E+00 0.00000000000000E+00 2.10000000000000E+01 1.10000000000000E+01
 1.20000000000000E+00 1.68232601303904E+00 0.00000000000000E+00 -1.00000000000000E+00 2.20000000000000E+01 1.20000000000000E+01
 1.20000000000000E+00 1.68232601303904E+00 1.77635683940025E-15 -9.99999999999998E-01 2.20000000000000E+01 1.20000000000000E+01
 1.25000000000000E+00 1.68232601303904E+00 5.00000000000000E-01 -5.00000000000000E-01 2.20000000000000E+01 1.20000000000000E+01
 1.30000000000000E+00 1.68232601303904E+00 1.00000000000000E+00 0.00000000000000E+00 2.20000000000000E+01 1.20000000000000E+01
 1.30000000000000E+00 1.60914006886523E+00 0.00000000000000E+00 -1.00000000000000E+00 2.30000000000000E+01 1.30000000000000E+01
 1.35000000000000E+00 1.60914006886523E+00 5.00000000000000E-01 -5.00000000000000E-01 2.30000000000000E+01 1.30000000000000E+01
 1.40000000000000E+00 1.60914006886523E+00 1.00000000000000E+00 0.00000000000000E+00 2.30000000000000E+01 1.30000000000000E+01
 1.40000000000000E+00 1.54205780307183E+00 0.00000000000000E+00 -1.00000000000000E+00 2.40000000000000E+01 1.40000000000000E+01
 1.40000000000000E+00 1.54205780307183E+00 1.77635683940025E-15 -9.99999999999998E-01 2.40000000000000E+01 1.40000000000000E+01
 1.45000000000000E+00 1.54205780307183E+00 5.00000000000002E-01 -4.99999999999998E-01 2.40000000000000E+01 1.40000000000000E+01
 1.50000000000000E+00 1.54205780307183E+00 1.00000000000000E+00 0.00000000000000E+00 2.40000000000000E+01 1.40000000000000E+01
 1.50000000000000E+00 1.48034604409105E+00 0.00000000000000E+00 -1.00000000000000E+00 2.50000000000000E+01 1.50000000000000E+01
 1.55000000000000E+00 1.48034604409105E+00 5.00000000000000E-01 -5.00000000000000E-01 2.50000000000000E+01 1.50000000000000E+01
 1.60000000000000E+00 1.48034604409105E+00 1.00000000000000E+00 0.00000000000000E+00 2.50000000000000E+01 1.50000000000000E+01
 1.60000000000000E+00 1.42338454841896E+00 0.00000000000000E+00 -1.00000000000000E+00 2.60000000000000E+01 1.60000000000000E+01
 1.65000000000000E+00 1.42338454841896E+00 5.00000000000000E-01 -5.00000000000000E-01 2.60000000000000E+01 1.60000000000000E+01
 1.70000000000000E+00 1.42338454841896E+00 1.00000000000000E+00 0.00000000000000E+00 2.60000000000000E+01 1.60000000000000E+01
 1.70000000000000E+00 1.37064506019252E+00 0.00000000000000E+00 -1.00000000000000E+00 2.70000000000000E+01 1.70000000000000E+01
 1.70000000000000E+00 1.37064506019252E+00 0.00000000000000E+00 -1.00000000000000E+00 2.70000000000000E+01 1.70000000000000E+01
 1.75000000000000E+00 1.37064506019252E+00 5.00000000000000E-01 -5.00000000000000E-01 2.70000000000000E+01 1.70000000000000E+01
 1.80000000000000E+00 1.37064506019252E+00 1.00000000000000E+00 0.00000000000000E+00 2.70000000000000E+01 1.70000000000000E+01
 1.80000000000000E+00 1.32167486458700E+00 0.00000000000000E+00 -1.00000000000000E+00 2.80000000000000E+01 1.80000000000000E+01
 1.85000000000000E+00 1.32167486458700E+00 5.00000000000000E-01 -5.00000000000000E-01 2.80000000000000E+01 1.80000000000000E+01
 1.90000000000000E+00 1.32167486458700E+00 1.00000000000000E+00 0.00000000000000E+00 2.80000000000000E+01 1.80000000000000E+01
 1.90000000000000E+00 1.27608374859427E+00 0.00000000000000E+00 -1.00000000000000E+00 2.90000000000000E+01 1.90000000000000E+01
 1.95000000000000E+00 1.27608374859427E+00 5.00000000000000E-01 -5.00000000000000E-01 2.90000000000000E+01 1.90000000000000E+01
 2.00000000000000E+00 1.27608374859427E+00 1.00000000000000E+00 0.00000000000000E+00 2.90000000000000E+01 1.90000000000000E+01
 2.00000000000000E+00 1.23353357295144E+00 0.00000000000000E+00 -1.00000000000000E+00 3.00000000000000E+01 2.00000000000000E+01
