#1
char Aclass(3,11)
Atrajectory
1.1

char name(29,31)
time
_block_jacobian_check_tol
_cs_rel_tol
_cs_step_size
_events_default_tol
_events_tol_factor
_nle_solver_default_tol
_nle_solver_min_tol
_nle_solver_tol_factor
x
y
temp_1
_block_solver_experimental_mode
_cs_solver
_iteration_variable_scaling
_log_level
_nle_solver_log_level
_nle_solver_max_iter
_residual_equation_scaling
_block_jacobian_check
_enforce_bounds
_nle_solver_check_jac_cond
_rescale_after_singular_jac
_rescale_each_step
_use_Brent_in_1d
_use_automatic_scaling
_use_jacobian_equilibration
_use_jacobian_scaling
_use_manual_equation_scaling

char description(29,11)
Time in [s]





























int dataInfo(29,4)
0 1 0 -1 # time
1 2 0 -1 # _block_jacobian_check_tol
1 3 0 -1 # _cs_rel_tol
1 4 0 -1 # _cs_step_size
1 5 0 -1 # _events_default_tol
1 6 0 -1 # _events_tol_factor
1 7 0 -1 # _nle_solver_default_tol
1 8 0 -1 # _nle_solver_min_tol
1 9 0 -1 # _nle_solver_tol_factor
2 2 0 -1 # x
2 3 0 -1 # y
2 4 0 -1 # temp_1
1 10 0 -1 # _block_solver_experimental_mode
1 11 0 -1 # _cs_solver
1 12 0 -1 # _iteration_variable_scaling
1 13 0 -1 # _log_level
1 14 0 -1 # _nle_solver_log_level
1 15 0 -1 # _nle_solver_max_iter
1 16 0 -1 # _residual_equation_scaling
1 17 0 -1 # _block_jacobian_check
1 18 0 -1 # _enforce_bounds
1 19 0 -1 # _nle_solver_check_jac_cond
1 20 0 -1 # _rescale_after_singular_jac
1 21 0 -1 # _rescale_each_step
1 22 0 -1 # _use_Brent_in_1d
1 23 0 -1 # _use_automatic_scaling
1 24 0 -1 # _use_jacobian_equilibration
1 25 0 -1 # _use_jacobian_scaling
1 26 0 -1 # _use_manual_equation_scaling

float data_1(2,26)
0.00000000000000E+00 1.00000000000000E-06 1.00000000000000E-06 1.00000000000000E-03 1.00000000000000E-10 1.00000000000000E-04 1.00000000000000E-10 1.00000000000000E-12 1.00000000000000E-04 0.00000000000000E+00 0.00000000000000E+00 1.00000000000000E+00 3.00000000000000E+00 0.00000000000000E+00 1.00000000000000E+02 1.00000000000000E+00 0.00000000000000E+00 0.00000000000000E+00 0.00000000000000E+00 1.00000000000000E+00 0.00000000000000E+00 0.00000000000000E+00 1.00000000000000E+00 0.00000000000000E+00 0.00000000000000E+00 0.00000000000000E+00
2.00000000000000E+00         1.00000000000000E-06 1.00000000000000E-06 1.00000000000000E-03 1.00000000000000E-10 1.00000000000000E-04 1.00000000000000E-10 1.00000000000000E-12 1.00000000000000E-04 0.00000000000000E+00 0.00000000000000E+00 1.00000000000000E+00 3.00000000000000E+00 0.00000000000000E+00 1.00000000000000E+02 1.00000000000000E+00 0.00000000000000E+00 0.00000000000000E+00 0.00000000000000E+00 1.00000000000000E+00 0.00000000000000E+00 0.00000000000000E+00 1.00000000000000E+00 0.00000000000000E+00 0.00000000000000E+00 0.00000000000000E+00

float data_2(257,4)                          
 0.00000000000000E+00 0.00000000000000E+00 0.00000000000000E+00 0.00000000000000E+00
 3.97887357729738E-10 1.00000000000000E-08 0.00000000000000E+00 0.00000000000000E+00
 3.97887357729738E-10 1.00000000000000E-08 1.00000000000000E+00 1.00000000000000E+00
 1.00000000000000E-02 2.51162078117253E-01 1.00000000000000E+00 1.00000000000000E+00
 2.00000000000000E-02 5.01332934257217E-01 1.00000000000000E+00 1.00000000000000E+00
 3.00000000000000E-02 7.49525258342898E-01 1.00000000000000E+00 1.00000000000000E+00
 4.00000000000000E-02 9.94759548659419E-01 1.00000000000000E+00 1.00000000000000E+00
 4.02153120385201E-02 1.00000001000002E+00 1.00000000000000E+00 1.00000000000000E+00
 4.02153120385201E-02 1.00000001000002E+00 2.00000000000000E+00 2.00000000000000E+00
 5.00000000000000E-02 1.23606797749979E+00 2.00000000000000E+00 2.00000000000000E+00
 6.00000000000000E-02 1.47249821073871E+00 2.00000000000000E+00 2.00000000000000E+00
 7.00000000000000E-02 1.70311716626029E+00 2.00000000000000E+00 2.00000000000000E+00
 8.00000000000000E-02 1.92701469640686E+00 2.00000000000000E+00 2.00000000000000E+00
 8.33333337927752E-02 2.00000001000002E+00 2.00000000000000E+00 2.00000000000000E+00
 8.33333337927752E-02 2.00000001000002E+00 3.00000000000000E+00 3.00000000000000E+00
 9.00000000000000E-02 2.14330717991599E+00 3.00000000000000E+00 3.00000000000000E+00
 1.00000000000000E-01 2.35114100916989E+00 3.00000000000000E+00 3.00000000000000E+00
 1.10000000000000E-01 2.54969595899476E+00 3.00000000000000E+00 3.00000000000000E+00
 1.20000000000000E-01 2.73818842371475E+00 3.00000000000000E+00 3.00000000000000E+00
 1.30000000000000E-01 2.91587450968565E+00 3.00000000000000E+00 3.00000000000000E+00
 1.34973272520241E-01 3.00000001000000E+00 3.00000000000000E+00 3.00000000000000E+00
 1.34973272520241E-01 3.00000001000000E+00 4.00000000000000E+00 4.00000000000000E+00
 1.40000000000000E-01 3.08205297110316E+00 4.00000000000000E+00 4.00000000000000E+00
 1.50000000000000E-01 3.23606797749979E+00 4.00000000000000E+00 4.00000000000000E+00
 1.60000000000000E-01 3.37731170200806E+00 4.00000000000000E+00 4.00000000000000E+00
 1.70000000000000E-01 3.50522672017545E+00 4.00000000000000E+00 4.00000000000000E+00
 1.80000000000000E-01 3.61930820986408E+00 4.00000000000000E+00 4.00000000000000E+00
 1.90000000000000E-01 3.71910594355301E+00 4.00000000000000E+00 4.00000000000000E+00
 2.00000000000000E-01 3.80422606518061E+00 4.00000000000000E+00 4.00000000000000E+00
 2.10000000000000E-01 3.87433264451452E+00 4.00000000000000E+00 4.00000000000000E+00
 2.20000000000000E-01 3.92914900291475E+00 4.00000000000000E+00 4.00000000000000E+00
 2.30000000000000E-01 3.96845880525791E+00 4.00000000000000E+00 4.00000000000000E+00
 2.40000000000000E-01 3.99210691371309E+00 4.00000000000000E+00 4.00000000000000E+00
 2.50000000000000E-01 4.00000000000000E+00 4.00000000000000E+00 4.00000000000000E+00
 2.60000000000000E-01 3.99210691371309E+00 4.00000000000000E+00 4.00000000000000E+00
 2.70000000000000E-01 3.96845880525791E+00 4.00000000000000E+00 4.00000000000000E+00
 2.80000000000000E-01 3.92914900291475E+00 4.00000000000000E+00 4.00000000000000E+00
 2.90000000000000E-01 3.87433264451452E+00 4.00000000000000E+00 4.00000000000000E+00
 3.00000000000000E-01 3.80422606518061E+00 4.00000000000000E+00 4.00000000000000E+00
 3.10000000000000E-01 3.71910594355301E+00 4.00000000000000E+00 4.00000000000000E+00
 3.20000000000000E-01 3.61930820986408E+00 4.00000000000000E+00 4.00000000000000E+00
 3.30000000000000E-01 3.50522672017545E+00 4.00000000000000E+00 4.00000000000000E+00
 3.40000000000000E-01 3.37731170200806E+00 4.00000000000000E+00 4.00000000000000E+00
 3.50000000000000E-01 3.23606797749979E+00 4.00000000000000E+00 4.00000000000000E+00
 3.60000000000000E-01 3.08205297110316E+00 4.00000000000000E+00 4.00000000000000E+00
 3.65026728081312E-01 2.99999999999993E+00 4.00000000000000E+00 4.00000000000000E+00
 3.65026728081312E-01 2.99999999999993E+00 3.00000000000000E+00 3.00000000000000E+00
 3.70000000000000E-01 2.91587450968565E+00 3.00000000000000E+00 3.00000000000000E+00
 3.80000000000000E-01 2.73818842371476E+00 3.00000000000000E+00 3.00000000000000E+00
 3.90000000000000E-01 2.54969595899476E+00 3.00000000000000E+00 3.00000000000000E+00
 4.00000000000000E-01 2.35114100916989E+00 3.00000000000000E+00 3.00000000000000E+00
 4.10000000000000E-01 2.14330717991599E+00 3.00000000000000E+00 3.00000000000000E+00
 4.16666666666667E-01 2.00000000000000E+00 3.00000000000000E+00 3.00000000000000E+00
 4.16666666666667E-01 2.00000000000000E+00 2.00000000000000E+00 2.00000000000000E+00
 4.20000000000000E-01 1.92701469640686E+00 2.00000000000000E+00 2.00000000000000E+00
 4.30000000000000E-01 1.70311716626029E+00 2.00000000000000E+00 2.00000000000000E+00
 4.40000000000000E-01 1.47249821073871E+00 2.00000000000000E+00 2.00000000000000E+00
 4.50000000000000E-01 1.23606797749979E+00 2.00000000000000E+00 2.00000000000000E+00
 4.59784688372417E-01 9.99999999999999E-01 2.00000000000000E+00 2.00000000000000E+00
 4.59784688372417E-01 9.99999999999999E-01 1.00000000000000E+00 1.00000000000000E+00
 4.60000000000000E-01 9.94759548659419E-01 1.00000000000000E+00 1.00000000000000E+00
 4.70000000000000E-01 7.49525258342898E-01 1.00000000000000E+00 1.00000000000000E+00
 4.80000000000000E-01 5.01332934257218E-01 1.00000000000000E+00 1.00000000000000E+00
 4.90000000000000E-01 2.51162078117254E-01 1.00000000000000E+00 1.00000000000000E+00
 5.00000000000000E-01 4.89842541528951E-16 1.00000000000000E+00 1.00000000000000E+00
 5.00000000000000E-01 -1.28651429787130E-15 1.00000000000000E+00 1.00000000000000E+00
 5.00000000000000E-01 -1.28651429787130E-15 -0.00000000000000E+00 -0.00000000000000E+00
 5.10000000000000E-01 -2.51162078117253E-01 -0.00000000000000E+00 -0.00000000000000E+00
 5.20000000000000E-01 -5.01332934257217E-01 -0.00000000000000E+00 -0.00000000000000E+00
 5.30000000000000E-01 -7.49525258342899E-01 -0.00000000000000E+00 -0.00000000000000E+00
 5.40000000000000E-01 -9.94759548659418E-01 -0.00000000000000E+00 -0.00000000000000E+00
 5.40215311627583E-01 -1.00000000000000E+00 -0.00000000000000E+00 -0.00000000000000E+00
 5.40215311627583E-01 -1.00000000000000E+00 -1.00000000000000E+00 -1.00000000000000E+00
 5.50000000000000E-01 -1.23606797749979E+00 -1.00000000000000E+00 -1.00000000000000E+00
 5.60000000000000E-01 -1.47249821073871E+00 -1.00000000000000E+00 -1.00000000000000E+00
 5.70000000000000E-01 -1.70311716626029E+00 -1.00000000000000E+00 -1.00000000000000E+00
 5.80000000000000E-01 -1.92701469640686E+00 -1.00000000000000E+00 -1.00000000000000E+00
 5.83333333333333E-01 -2.00000000000000E+00 -1.00000000000000E+00 -1.00000000000000E+00
 5.83333333333333E-01 -2.00000000000000E+00 -2.00000000000000E+00 -2.00000000000000E+00
 5.90000000000000E-01 -2.14330717991598E+00 -2.00000000000000E+00 -2.00000000000000E+00
 6.00000000000000E-01 -2.35114100916989E+00 -2.00000000000000E+00 -2.00000000000000E+00
 6.10000000000000E-01 -2.54969595899476E+00 -2.00000000000000E+00 -2.00000000000000E+00
 6.20000000000000E-01 -2.73818842371475E+00 -2.00000000000000E+00 -2.00000000000000E+00
 6.30000000000000E-01 -2.91587450968565E+00 -2.00000000000000E+00 -2.00000000000000E+00
 6.34973271918692E-01 -3.00000000000000E+00 -2.00000000000000E+00 -2.00000000000000E+00
 6.34973271918692E-01 -3.00000000000000E+00 -3.00000000000000E+00 -3.00000000000000E+00
 6.40000000000000E-01 -3.08205297110316E+00 -3.00000000000000E+00 -3.00000000000000E+00
 6.50000000000000E-01 -3.23606797749979E+00 -3.00000000000000E+00 -3.00000000000000E+00
 6.60000000000000E-01 -3.37731170200806E+00 -3.00000000000000E+00 -3.00000000000000E+00
 6.70000000000000E-01 -3.50522672017545E+00 -3.00000000000000E+00 -3.00000000000000E+00
 6.80000000000000E-01 -3.61930820986408E+00 -3.00000000000000E+00 -3.00000000000000E+00
 6.90000000000000E-01 -3.71910594355301E+00 -3.00000000000000E+00 -3.00000000000000E+00
 7.00000000000000E-01 -3.80422606518061E+00 -3.00000000000000E+00 -3.00000000000000E+00
 7.10000000000000E-01 -3.87433264451452E+00 -3.00000000000000E+00 -3.00000000000000E+00
 7.20000000000000E-01 -3.92914900291475E+00 -3.00000000000000E+00 -3.00000000000000E+00
 7.30000000000000E-01 -3.96845880525791E+00 -3.00000000000000E+00 -3.00000000000000E+00
 7.40000000000000E-01 -3.99210691371309E+00 -3.00000000000000E+00 -3.00000000000000E+00
 7.50000000000000E-01 -4.00000000000000E+00 -3.00000000000000E+00 -3.00000000000000E+00
 7.60000000000000E-01 -3.99210691371309E+00 -3.00000000000000E+00 -3.00000000000000E+00
 7.70000000000000E-01 -3.96845880525791E+00 -3.00000000000000E+00 -3.00000000000000E+00
 7.80000000000000E-01 -3.92914900291475E+00 -3.00000000000000E+00 -3.00000000000000E+00
 7.90000000000000E-01 -3.87433264451452E+00 -3.00000000000000E+00 -3.00000000000000E+00
 8.00000000000000E-01 -3.80422606518061E+00 -3.00000000000000E+00 -3.00000000000000E+00
 8.10000000000000E-01 -3.71910594355300E+00 -3.00000000000000E+00 -3.00000000000000E+00
 8.20000000000000E-01 -3.61930820986408E+00 -3.00000000000000E+00 -3.00000000000000E+00
 8.30000000000000E-01 -3.50522672017546E+00 -3.00000000000000E+00 -3.00000000000000E+00
 8.40000000000000E-01 -3.37731170200806E+00 -3.00000000000000E+00 -3.00000000000000E+00
 8.50000000000000E-01 -3.23606797749979E+00 -3.00000000000000E+00 -3.00000000000000E+00
 8.60000000000000E-01 -3.08205297110316E+00 -3.00000000000000E+00 -3.00000000000000E+00
 8.65026728682867E-01 -2.99999998999984E+00 -3.00000000000000E+00 -3.00000000000000E+00
 8.65026728682867E-01 -2.99999998999984E+00 -2.00000000000000E+00 -2.00000000000000E+00
 8.70000000000000E-01 -2.91587450968565E+00 -2.00000000000000E+00 -2.00000000000000E+00
 8.80000000000000E-01 -2.73818842371476E+00 -2.00000000000000E+00 -2.00000000000000E+00
 8.90000000000000E-01 -2.54969595899476E+00 -2.00000000000000E+00 -2.00000000000000E+00
 9.00000000000000E-01 -2.35114100916989E+00 -2.00000000000000E+00 -2.00000000000000E+00
 9.10000000000000E-01 -2.14330717991599E+00 -2.00000000000000E+00 -2.00000000000000E+00
 9.16666667126118E-01 -1.99999998999977E+00 -2.00000000000000E+00 -2.00000000000000E+00
 9.16666667126118E-01 -1.99999998999977E+00 -1.00000000000000E+00 -1.00000000000000E+00
 9.20000000000000E-01 -1.92701469640686E+00 -1.00000000000000E+00 -1.00000000000000E+00
 9.30000000000000E-01 -1.70311716626029E+00 -1.00000000000000E+00 -1.00000000000000E+00
 9.40000000000000E-01 -1.47249821073871E+00 -1.00000000000000E+00 -1.00000000000000E+00
 9.50000000000000E-01 -1.23606797749979E+00 -1.00000000000000E+00 -1.00000000000000E+00
 9.59784688783358E-01 -9.99999989999888E-01 -1.00000000000000E+00 -1.00000000000000E+00
 9.59784688783358E-01 -9.99999989999888E-01 -0.00000000000000E+00 -0.00000000000000E+00
 9.60000000000000E-01 -9.94759548659421E-01 -0.00000000000000E+00 -0.00000000000000E+00
 9.70000000000000E-01 -7.49525258342902E-01 -0.00000000000000E+00 -0.00000000000000E+00
 9.80000000000000E-01 -5.01332934257219E-01 -0.00000000000000E+00 -0.00000000000000E+00
 9.90000000000000E-01 -2.51162078117257E-01 -0.00000000000000E+00 -0.00000000000000E+00
 1.00000000000000E+00 -9.79685083057902E-16 -0.00000000000000E+00 -0.00000000000000E+00
 1.00000000039789E+00 1.00000034004323E-08 -0.00000000000000E+00 -0.00000000000000E+00
 1.00000000039789E+00 1.00000034004323E-08 1.00000000000000E+00 1.00000000000000E+00
 1.01000000000000E+00 2.51162078117251E-01 1.00000000000000E+00 1.00000000000000E+00
 1.02000000000000E+00 5.01332934257217E-01 1.00000000000000E+00 1.00000000000000E+00
 1.03000000000000E+00 7.49525258342897E-01 1.00000000000000E+00 1.00000000000000E+00
 1.04000000000000E+00 9.94759548659420E-01 1.00000000000000E+00 1.00000000000000E+00
 1.04021531203852E+00 1.00000001000000E+00 1.00000000000000E+00 1.00000000000000E+00
 1.04021531203852E+00 1.00000001000000E+00 2.00000000000000E+00 2.00000000000000E+00
 1.05000000000000E+00 1.23606797749979E+00 2.00000000000000E+00 2.00000000000000E+00
 1.06000000000000E+00 1.47249821073871E+00 2.00000000000000E+00 2.00000000000000E+00
 1.07000000000000E+00 1.70311716626029E+00 2.00000000000000E+00 2.00000000000000E+00
 1.08000000000000E+00 1.92701469640686E+00 2.00000000000000E+00 2.00000000000000E+00
 1.08333333379279E+00 2.00000001000027E+00 2.00000000000000E+00 2.00000000000000E+00
 1.08333333379279E+00 2.00000001000027E+00 3.00000000000000E+00 3.00000000000000E+00
 1.09000000000000E+00 2.14330717991599E+00 3.00000000000000E+00 3.00000000000000E+00
 1.10000000000000E+00 2.35114100916989E+00 3.00000000000000E+00 3.00000000000000E+00
 1.11000000000000E+00 2.54969595899476E+00 3.00000000000000E+00 3.00000000000000E+00
 1.12000000000000E+00 2.73818842371475E+00 3.00000000000000E+00 3.00000000000000E+00
 1.13000000000000E+00 2.91587450968565E+00 3.00000000000000E+00 3.00000000000000E+00
 1.13497327252025E+00 3.00000001000021E+00 3.00000000000000E+00 3.00000000000000E+00
 1.13497327252025E+00 3.00000001000021E+00 4.00000000000000E+00 4.00000000000000E+00
 1.14000000000000E+00 3.08205297110316E+00 4.00000000000000E+00 4.00000000000000E+00
 1.15000000000000E+00 3.23606797749979E+00 4.00000000000000E+00 4.00000000000000E+00
 1.16000000000000E+00 3.37731170200806E+00 4.00000000000000E+00 4.00000000000000E+00
 1.17000000000000E+00 3.50522672017545E+00 4.00000000000000E+00 4.00000000000000E+00
 1.18000000000000E+00 3.61930820986408E+00 4.00000000000000E+00 4.00000000000000E+00
 1.19000000000000E+00 3.71910594355300E+00 4.00000000000000E+00 4.00000000000000E+00
 1.20000000000000E+00 3.80422606518061E+00 4.00000000000000E+00 4.00000000000000E+00
 1.21000000000000E+00 3.87433264451452E+00 4.00000000000000E+00 4.00000000000000E+00
 1.22000000000000E+00 3.92914900291475E+00 4.00000000000000E+00 4.00000000000000E+00
 1.23000000000000E+00 3.96845880525791E+00 4.00000000000000E+00 4.00000000000000E+00
 1.24000000000000E+00 3.99210691371309E+00 4.00000000000000E+00 4.00000000000000E+00
 1.25000000000000E+00 4.00000000000000E+00 4.00000000000000E+00 4.00000000000000E+00
 1.26000000000000E+00 3.99210691371309E+00 4.00000000000000E+00 4.00000000000000E+00
 1.27000000000000E+00 3.96845880525791E+00 4.00000000000000E+00 4.00000000000000E+00
 1.28000000000000E+00 3.92914900291475E+00 4.00000000000000E+00 4.00000000000000E+00
 1.29000000000000E+00 3.87433264451452E+00 4.00000000000000E+00 4.00000000000000E+00
 1.30000000000000E+00 3.80422606518061E+00 4.00000000000000E+00 4.00000000000000E+00
 1.31000000000000E+00 3.71910594355301E+00 4.00000000000000E+00 4.00000000000000E+00
 1.32000000000000E+00 3.61930820986408E+00 4.00000000000000E+00 4.00000000000000E+00
 1.33000000000000E+00 3.50522672017545E+00 4.00000000000000E+00 4.00000000000000E+00
 1.34000000000000E+00 3.37731170200806E+00 4.00000000000000E+00 4.00000000000000E+00
 1.35000000000000E+00 3.23606797749979E+00 4.00000000000000E+00 4.00000000000000E+00
 1.36000000000000E+00 3.08205297110316E+00 4.00000000000000E+00 4.00000000000000E+00
 1.36502672808132E+00 2.99999999999973E+00 4.00000000000000E+00 4.00000000000000E+00
 1.36502672808132E+00 2.99999999999973E+00 3.00000000000000E+00 3.00000000000000E+00
 1.37000000000000E+00 2.91587450968564E+00 3.00000000000000E+00 3.00000000000000E+00
 1.38000000000000E+00 2.73818842371475E+00 3.00000000000000E+00 3.00000000000000E+00
 1.39000000000000E+00 2.54969595899476E+00 3.00000000000000E+00 3.00000000000000E+00
 1.40000000000000E+00 2.35114100916989E+00 3.00000000000000E+00 3.00000000000000E+00
 1.41000000000000E+00 2.14330717991599E+00 3.00000000000000E+00 3.00000000000000E+00
 1.41666666666667E+00 1.99999999999999E+00 3.00000000000000E+00 3.00000000000000E+00
 1.41666666666667E+00 1.99999999999999E+00 2.00000000000000E+00 2.00000000000000E+00
 1.42000000000000E+00 1.92701469640686E+00 2.00000000000000E+00 2.00000000000000E+00
 1.43000000000000E+00 1.70311716626030E+00 2.00000000000000E+00 2.00000000000000E+00
 1.44000000000000E+00 1.47249821073872E+00 2.00000000000000E+00 2.00000000000000E+00
 1.45000000000000E+00 1.23606797749979E+00 2.00000000000000E+00 2.00000000000000E+00
 1.45978468837243E+00 9.99999999999751E-01 2.00000000000000E+00 2.00000000000000E+00
 1.45978468837243E+00 9.99999999999751E-01 1.00000000000000E+00 1.00000000000000E+00
 1.46000000000000E+00 9.94759548659422E-01 1.00000000000000E+00 1.00000000000000E+00
 1.47000000000000E+00 7.49525258342903E-01 1.00000000000000E+00 1.00000000000000E+00
 1.48000000000000E+00 5.01332934257223E-01 1.00000000000000E+00 1.00000000000000E+00
 1.49000000000000E+00 2.51162078117254E-01 1.00000000000000E+00 1.00000000000000E+00
 1.50000000000000E+00 1.46952762458685E-15 1.00000000000000E+00 1.00000000000000E+00
 1.50000000000002E+00 -4.17750686473872E-13 1.00000000000000E+00 1.00000000000000E+00
 1.50000000000002E+00 -4.17750686473872E-13 -0.00000000000000E+00 -0.00000000000000E+00
 1.51000000000000E+00 -2.51162078117251E-01 -0.00000000000000E+00 -0.00000000000000E+00
 1.52000000000000E+00 -5.01332934257213E-01 -0.00000000000000E+00 -0.00000000000000E+00
 1.53000000000000E+00 -7.49525258342893E-01 -0.00000000000000E+00 -0.00000000000000E+00
 1.54000000000000E+00 -9.94759548659419E-01 -0.00000000000000E+00 -0.00000000000000E+00
 1.54021531162761E+00 -1.00000000000062E+00 -0.00000000000000E+00 -0.00000000000000E+00
 1.54021531162761E+00 -1.00000000000062E+00 -1.00000000000000E+00 -1.00000000000000E+00
 1.55000000000000E+00 -1.23606797749979E+00 -1.00000000000000E+00 -1.00000000000000E+00
 1.56000000000000E+00 -1.47249821073871E+00 -1.00000000000000E+00 -1.00000000000000E+00
 1.57000000000000E+00 -1.70311716626029E+00 -1.00000000000000E+00 -1.00000000000000E+00
 1.58000000000000E+00 -1.92701469640686E+00 -1.00000000000000E+00 -1.00000000000000E+00
 1.58333333333333E+00 -2.00000000000000E+00 -1.00000000000000E+00 -1.00000000000000E+00
 1.58333333333333E+00 -2.00000000000000E+00 -2.00000000000000E+00 -2.00000000000000E+00
 1.59000000000000E+00 -2.14330717991599E+00 -2.00000000000000E+00 -2.00000000000000E+00
 1.60000000000000E+00 -2.35114100916989E+00 -2.00000000000000E+00 -2.00000000000000E+00
 1.61000000000000E+00 -2.54969595899476E+00 -2.00000000000000E+00 -2.00000000000000E+00
 1.62000000000000E+00 -2.73818842371476E+00 -2.00000000000000E+00 -2.00000000000000E+00
 1.63000000000000E+00 -2.91587450968565E+00 -2.00000000000000E+00 -2.00000000000000E+00
 1.63497327191869E+00 -3.00000000000000E+00 -2.00000000000000E+00 -2.00000000000000E+00
 1.63497327191869E+00 -3.00000000000000E+00 -3.00000000000000E+00 -3.00000000000000E+00
 1.64000000000000E+00 -3.08205297110316E+00 -3.00000000000000E+00 -3.00000000000000E+00
 1.65000000000000E+00 -3.23606797749979E+00 -3.00000000000000E+00 -3.00000000000000E+00
 1.66000000000000E+00 -3.37731170200806E+00 -3.00000000000000E+00 -3.00000000000000E+00
 1.67000000000000E+00 -3.50522672017545E+00 -3.00000000000000E+00 -3.00000000000000E+00
 1.68000000000000E+00 -3.61930820986408E+00 -3.00000000000000E+00 -3.00000000000000E+00
 1.69000000000000E+00 -3.71910594355300E+00 -3.00000000000000E+00 -3.00000000000000E+00
 1.70000000000000E+00 -3.80422606518061E+00 -3.00000000000000E+00 -3.00000000000000E+00
 1.71000000000000E+00 -3.87433264451452E+00 -3.00000000000000E+00 -3.00000000000000E+00
 1.72000000000000E+00 -3.92914900291475E+00 -3.00000000000000E+00 -3.00000000000000E+00
 1.73000000000000E+00 -3.96845880525791E+00 -3.00000000000000E+00 -3.00000000000000E+00
 1.74000000000000E+00 -3.99210691371309E+00 -3.00000000000000E+00 -3.00000000000000E+00
 1.75000000000000E+00 -4.00000000000000E+00 -3.00000000000000E+00 -3.00000000000000E+00
 1.76000000000000E+00 -3.99210691371309E+00 -3.00000000000000E+00 -3.00000000000000E+00
 1.77000000000000E+00 -3.96845880525791E+00 -3.00000000000000E+00 -3.00000000000000E+00
 1.78000000000000E+00 -3.92914900291476E+00 -3.00000000000000E+00 -3.00000000000000E+00
 1.79000000000000E+00 -3.87433264451452E+00 -3.00000000000000E+00 -3.00000000000000E+00
 1.80000000000000E+00 -3.80422606518062E+00 -3.00000000000000E+00 -3.00000000000000E+00
 1.81000000000000E+00 -3.71910594355301E+00 -3.00000000000000E+00 -3.00000000000000E+00
 1.82000000000000E+00 -3.61930820986408E+00 -3.00000000000000E+00 -3.00000000000000E+00
 1.83000000000000E+00 -3.50522672017545E+00 -3.00000000000000E+00 -3.00000000000000E+00
 1.84000000000000E+00 -3.37731170200806E+00 -3.00000000000000E+00 -3.00000000000000E+00
 1.85000000000000E+00 -3.23606797749979E+00 -3.00000000000000E+00 -3.00000000000000E+00
 1.86000000000000E+00 -3.08205297110316E+00 -3.00000000000000E+00 -3.00000000000000E+00
 1.86502672868289E+00 -2.99999998999948E+00 -3.00000000000000E+00 -3.00000000000000E+00
 1.86502672868289E+00 -2.99999998999948E+00 -2.00000000000000E+00 -2.00000000000000E+00
 1.87000000000000E+00 -2.91587450968564E+00 -2.00000000000000E+00 -2.00000000000000E+00
 1.88000000000000E+00 -2.73818842371475E+00 -2.00000000000000E+00 -2.00000000000000E+00
 1.89000000000000E+00 -2.54969595899476E+00 -2.00000000000000E+00 -2.00000000000000E+00
 1.90000000000000E+00 -2.35114100916989E+00 -2.00000000000000E+00 -2.00000000000000E+00
 1.91000000000000E+00 -2.14330717991599E+00 -2.00000000000000E+00 -2.00000000000000E+00
 1.91666666712614E+00 -1.99999998999927E+00 -2.00000000000000E+00 -2.00000000000000E+00
 1.91666666712614E+00 -1.99999998999927E+00 -1.00000000000000E+00 -1.00000000000000E+00
 1.92000000000000E+00 -1.92701469640687E+00 -1.00000000000000E+00 -1.00000000000000E+00
 1.93000000000000E+00 -1.70311716626030E+00 -1.00000000000000E+00 -1.00000000000000E+00
 1.94000000000000E+00 -1.47249821073872E+00 -1.00000000000000E+00 -1.00000000000000E+00
 1.95000000000000E+00 -1.23606797749979E+00 -1.00000000000000E+00 -1.00000000000000E+00
 1.95978468878337E+00 -9.99999989999611E-01 -1.00000000000000E+00 -1.00000000000000E+00
 1.95978468878337E+00 -9.99999989999611E-01 -0.00000000000000E+00 -0.00000000000000E+00
 1.96000000000000E+00 -9.94759548659422E-01 -0.00000000000000E+00 -0.00000000000000E+00
 1.97000000000000E+00 -7.49525258342903E-01 -0.00000000000000E+00 -0.00000000000000E+00
 1.98000000000000E+00 -5.01332934257223E-01 -0.00000000000000E+00 -0.00000000000000E+00
 1.99000000000000E+00 -2.51162078117254E-01 -0.00000000000000E+00 -0.00000000000000E+00
 2.00000000000000E+00 -1.95937016611580E-15 -0.00000000000000E+00 -0.00000000000000E+00
