#1
char Aclass(3,11)
Atrajectory
1.1

char name(30,31)
time
_block_jacobian_check_tol
_cs_rel_tol
_cs_step_size
_events_default_tol
_events_tol_factor
_nle_solver_default_tol
_nle_solver_min_tol
_nle_solver_tol_factor
x
y
temp_1
temp_2
_block_solver_experimental_mode
_cs_solver
_iteration_variable_scaling
_log_level
_nle_solver_log_level
_nle_solver_max_iter
_residual_equation_scaling
_block_jacobian_check
_enforce_bounds
_nle_solver_check_jac_cond
_rescale_after_singular_jac
_rescale_each_step
_use_Brent_in_1d
_use_automatic_scaling
_use_jacobian_equilibration
_use_jacobian_scaling
_use_manual_equation_scaling

char description(30,11)
Time in [s]






























int dataInfo(30,4)
0 1 0 -1 # time
1 2 0 -1 # _block_jacobian_check_tol
1 3 0 -1 # _cs_rel_tol
1 4 0 -1 # _cs_step_size
1 5 0 -1 # _events_default_tol
1 6 0 -1 # _events_tol_factor
1 7 0 -1 # _nle_solver_default_tol
1 8 0 -1 # _nle_solver_min_tol
1 9 0 -1 # _nle_solver_tol_factor
2 2 0 -1 # x
2 3 0 -1 # y
2 4 0 -1 # temp_1
2 5 0 -1 # temp_2
1 10 0 -1 # _block_solver_experimental_mode
1 11 0 -1 # _cs_solver
1 12 0 -1 # _iteration_variable_scaling
1 13 0 -1 # _log_level
1 14 0 -1 # _nle_solver_log_level
1 15 0 -1 # _nle_solver_max_iter
1 16 0 -1 # _residual_equation_scaling
1 17 0 -1 # _block_jacobian_check
1 18 0 -1 # _enforce_bounds
1 19 0 -1 # _nle_solver_check_jac_cond
1 20 0 -1 # _rescale_after_singular_jac
1 21 0 -1 # _rescale_each_step
1 22 0 -1 # _use_Brent_in_1d
1 23 0 -1 # _use_automatic_scaling
1 24 0 -1 # _use_jacobian_equilibration
1 25 0 -1 # _use_jacobian_scaling
1 26 0 -1 # _use_manual_equation_scaling

float data_1(2,26)
0.00000000000000E+00 1.00000000000000E-06 1.00000000000000E-06 1.00000000000000E-03 1.00000000000000E-10 1.00000000000000E-04 1.00000000000000E-10 1.00000000000000E-12 1.00000000000000E-04 0.00000000000000E+00 0.00000000000000E+00 1.00000000000000E+00 3.00000000000000E+00 0.00000000000000E+00 1.00000000000000E+02 1.00000000000000E+00 0.00000000000000E+00 0.00000000000000E+00 0.00000000000000E+00 1.00000000000000E+00 0.00000000000000E+00 0.00000000000000E+00 1.00000000000000E+00 0.00000000000000E+00 0.00000000000000E+00 0.00000000000000E+00
2.00000000000000E+00         1.00000000000000E-06 1.00000000000000E-06 1.00000000000000E-03 1.00000000000000E-10 1.00000000000000E-04 1.00000000000000E-10 1.00000000000000E-12 1.00000000000000E-04 0.00000000000000E+00 0.00000000000000E+00 1.00000000000000E+00 3.00000000000000E+00 0.00000000000000E+00 1.00000000000000E+02 1.00000000000000E+00 0.00000000000000E+00 0.00000000000000E+00 0.00000000000000E+00 1.00000000000000E+00 0.00000000000000E+00 0.00000000000000E+00 1.00000000000000E+00 0.00000000000000E+00 0.00000000000000E+00 0.00000000000000E+00

float data_2(240,5)                          
 0.00000000000000E+00 0.00000000000000E+00 0.00000000000000E+00 0.00000000000000E+00 0.00000000000000E+00
 1.00000000000000E-02 1.00000000000000E-03 1.00000000000000E-03 0.00000000000000E+00 0.00000000000000E+00
 2.00000000000000E-02 4.00000000000000E-03 4.00000000000000E-03 0.00000000000000E+00 0.00000000000000E+00
 3.00000000000000E-02 9.00000000000000E-03 9.00000000000000E-03 0.00000000000000E+00 0.00000000000000E+00
 4.00000000000000E-02 1.60000000000000E-02 1.60000000000000E-02 0.00000000000000E+00 0.00000000000000E+00
 5.00000000000000E-02 2.50000000000000E-02 2.50000000000000E-02 0.00000000000000E+00 0.00000000000000E+00
 6.00000000000000E-02 3.60000000000000E-02 3.60000000000000E-02 0.00000000000000E+00 0.00000000000000E+00
 7.00000000000000E-02 4.90000000000000E-02 4.90000000000000E-02 0.00000000000000E+00 0.00000000000000E+00
 8.00000000000000E-02 6.40000000000000E-02 6.40000000000000E-02 0.00000000000000E+00 0.00000000000000E+00
 9.00000000000000E-02 8.10000000000000E-02 8.10000000000000E-02 0.00000000000000E+00 0.00000000000000E+00
 1.00000000000000E-01 1.00000000000000E-01 1.00000000000000E-01 0.00000000000000E+00 0.00000000000000E+00
 1.10000000000000E-01 1.21000000000000E-01 1.21000000000000E-01 0.00000000000000E+00 0.00000000000000E+00
 1.20000000000000E-01 1.44000000000000E-01 1.44000000000000E-01 0.00000000000000E+00 0.00000000000000E+00
 1.30000000000000E-01 1.69000000000000E-01 1.69000000000000E-01 0.00000000000000E+00 0.00000000000000E+00
 1.40000000000000E-01 1.96000000000000E-01 1.96000000000000E-01 0.00000000000000E+00 0.00000000000000E+00
 1.50000000000000E-01 2.25000000000000E-01 2.25000000000000E-01 0.00000000000000E+00 0.00000000000000E+00
 1.60000000000000E-01 2.56000000000000E-01 2.56000000000000E-01 0.00000000000000E+00 0.00000000000000E+00
 1.70000000000000E-01 2.89000000000000E-01 2.89000000000000E-01 0.00000000000000E+00 0.00000000000000E+00
 1.80000000000000E-01 3.24000000000000E-01 3.24000000000000E-01 0.00000000000000E+00 0.00000000000000E+00
 1.90000000000000E-01 3.61000000000000E-01 3.61000000000000E-01 0.00000000000000E+00 0.00000000000000E+00
 2.00000000000000E-01 4.00000000000000E-01 4.00000000000000E-01 0.00000000000000E+00 0.00000000000000E+00
 2.10000000000000E-01 4.41000000000000E-01 4.41000000000000E-01 0.00000000000000E+00 0.00000000000000E+00
 2.20000000000000E-01 4.84000000000000E-01 4.84000000000000E-01 0.00000000000000E+00 0.00000000000000E+00
 2.30000000000000E-01 5.29000000000000E-01 5.29000000000000E-01 0.00000000000000E+00 0.00000000000000E+00
 2.40000000000000E-01 5.76000000000000E-01 5.76000000000000E-01 0.00000000000000E+00 0.00000000000000E+00
 2.50000000000000E-01 6.25000000000000E-01 6.25000000000000E-01 0.00000000000000E+00 0.00000000000000E+00
 2.60000000000000E-01 6.76000000000000E-01 6.76000000000000E-01 0.00000000000000E+00 0.00000000000000E+00
 2.70000000000000E-01 7.29000000000000E-01 7.29000000000000E-01 0.00000000000000E+00 0.00000000000000E+00
 2.80000000000000E-01 7.84000000000000E-01 7.84000000000000E-01 0.00000000000000E+00 0.00000000000000E+00
 2.90000000000000E-01 8.41000000000000E-01 8.41000000000000E-01 0.00000000000000E+00 0.00000000000000E+00
 3.00000000000000E-01 9.00000000000000E-01 9.00000000000000E-01 0.00000000000000E+00 0.00000000000000E+00
 3.10000000000000E-01 9.61000000000000E-01 9.61000000000000E-01 0.00000000000000E+00 0.00000000000000E+00
 3.20000000000000E-01 1.02400000000000E+00 1.02400000000000E+00 0.00000000000000E+00 0.00000000000000E+00
 3.30000000000000E-01 1.08900000000000E+00 1.08900000000000E+00 0.00000000000000E+00 0.00000000000000E+00
 3.40000000000000E-01 1.15600000000000E+00 1.15600000000000E+00 0.00000000000000E+00 0.00000000000000E+00
 3.50000000000000E-01 1.22500000000000E+00 1.22500000000000E+00 0.00000000000000E+00 0.00000000000000E+00
 3.60000000000000E-01 1.29600000000000E+00 1.29600000000000E+00 0.00000000000000E+00 0.00000000000000E+00
 3.70000000000000E-01 1.36900000000000E+00 1.36900000000000E+00 0.00000000000000E+00 0.00000000000000E+00
 3.80000000000000E-01 1.44400000000000E+00 1.44400000000000E+00 0.00000000000000E+00 0.00000000000000E+00
 3.90000000000000E-01 1.52100000000000E+00 1.52100000000000E+00 0.00000000000000E+00 0.00000000000000E+00
 4.00000000000000E-01 1.60000000000000E+00 1.60000000000000E+00 0.00000000000000E+00 0.00000000000000E+00
 4.10000000000000E-01 1.68100000000000E+00 1.68100000000000E+00 0.00000000000000E+00 0.00000000000000E+00
 4.20000000000000E-01 1.76400000000000E+00 1.76400000000000E+00 0.00000000000000E+00 0.00000000000000E+00
 4.30000000000000E-01 1.84900000000000E+00 1.84900000000000E+00 0.00000000000000E+00 0.00000000000000E+00
 4.40000000000000E-01 1.93600000000000E+00 1.93600000000000E+00 0.00000000000000E+00 0.00000000000000E+00
 4.47213595499960E-01 2.00000000000002E+00 2.00000000000002E+00 0.00000000000000E+00 0.00000000000000E+00
 4.47213595499960E-01 2.13162820728030E-14 2.13162820728030E-14 -1.00000000000000E+00 1.00000000000000E+00
 4.50000000000000E-01 2.50000000000004E-02 2.50000000000004E-02 -1.00000000000000E+00 1.00000000000000E+00
 4.60000000000000E-01 1.16000000000000E-01 1.16000000000000E-01 -1.00000000000000E+00 1.00000000000000E+00
 4.70000000000000E-01 2.09000000000001E-01 2.09000000000001E-01 -1.00000000000000E+00 1.00000000000000E+00
 4.80000000000000E-01 3.04000000000000E-01 3.04000000000000E-01 -1.00000000000000E+00 1.00000000000000E+00
 4.90000000000000E-01 4.01000000000000E-01 4.01000000000000E-01 -1.00000000000000E+00 1.00000000000000E+00
 5.00000000000000E-01 5.00000000000000E-01 5.00000000000000E-01 -1.00000000000000E+00 1.00000000000000E+00
 5.10000000000000E-01 6.01000000000000E-01 6.01000000000000E-01 -1.00000000000000E+00 1.00000000000000E+00
 5.20000000000000E-01 7.04000000000000E-01 7.04000000000000E-01 -1.00000000000000E+00 1.00000000000000E+00
 5.30000000000000E-01 8.09000000000000E-01 8.09000000000000E-01 -1.00000000000000E+00 1.00000000000000E+00
 5.40000000000000E-01 9.16000000000000E-01 9.16000000000000E-01 -1.00000000000000E+00 1.00000000000000E+00
 5.50000000000000E-01 1.02500000000000E+00 1.02500000000000E+00 -1.00000000000000E+00 1.00000000000000E+00
 5.60000000000000E-01 1.13600000000000E+00 1.13600000000000E+00 -1.00000000000000E+00 1.00000000000000E+00
 5.70000000000000E-01 1.24900000000000E+00 1.24900000000000E+00 -1.00000000000000E+00 1.00000000000000E+00
 5.80000000000000E-01 1.36400000000000E+00 1.36400000000000E+00 -1.00000000000000E+00 1.00000000000000E+00
 5.90000000000000E-01 1.48100000000000E+00 1.48100000000000E+00 -1.00000000000000E+00 1.00000000000000E+00
 6.00000000000000E-01 1.60000000000000E+00 1.60000000000000E+00 -1.00000000000000E+00 1.00000000000000E+00
 6.10000000000000E-01 1.72100000000000E+00 1.72100000000000E+00 -1.00000000000000E+00 1.00000000000000E+00
 6.20000000000000E-01 1.84400000000000E+00 1.84400000000000E+00 -1.00000000000000E+00 1.00000000000000E+00
 6.30000000000000E-01 1.96900000000000E+00 1.96900000000000E+00 -1.00000000000000E+00 1.00000000000000E+00
 6.32455532033679E-01 2.00000000000004E+00 2.00000000000004E+00 -1.00000000000000E+00 1.00000000000000E+00
 6.32455532033679E-01 3.99680288865056E-14 3.99680288865056E-14 -2.00000000000000E+00 2.00000000000000E+00
 6.40000000000000E-01 9.60000000000001E-02 9.60000000000001E-02 -2.00000000000000E+00 2.00000000000000E+00
 6.50000000000000E-01 2.25000000000001E-01 2.25000000000001E-01 -2.00000000000000E+00 2.00000000000000E+00
 6.60000000000000E-01 3.56000000000001E-01 3.56000000000001E-01 -2.00000000000000E+00 2.00000000000000E+00
 6.70000000000000E-01 4.89000000000001E-01 4.89000000000001E-01 -2.00000000000000E+00 2.00000000000000E+00
 6.80000000000000E-01 6.24000000000001E-01 6.24000000000001E-01 -2.00000000000000E+00 2.00000000000000E+00
 6.90000000000000E-01 7.61000000000001E-01 7.61000000000001E-01 -2.00000000000000E+00 2.00000000000000E+00
 7.00000000000000E-01 9.00000000000001E-01 9.00000000000001E-01 -2.00000000000000E+00 2.00000000000000E+00
 7.10000000000000E-01 1.04100000000000E+00 1.04100000000000E+00 -2.00000000000000E+00 2.00000000000000E+00
 7.20000000000000E-01 1.18400000000000E+00 1.18400000000000E+00 -2.00000000000000E+00 2.00000000000000E+00
 7.30000000000000E-01 1.32900000000000E+00 1.32900000000000E+00 -2.00000000000000E+00 2.00000000000000E+00
 7.40000000000000E-01 1.47600000000000E+00 1.47600000000000E+00 -2.00000000000000E+00 2.00000000000000E+00
 7.50000000000000E-01 1.62500000000000E+00 1.62500000000000E+00 -2.00000000000000E+00 2.00000000000000E+00
 7.60000000000000E-01 1.77600000000000E+00 1.77600000000000E+00 -2.00000000000000E+00 2.00000000000000E+00
 7.70000000000000E-01 1.92900000000000E+00 1.92900000000000E+00 -2.00000000000000E+00 2.00000000000000E+00
 7.74596669241488E-01 2.00000000000007E+00 2.00000000000007E+00 -2.00000000000000E+00 2.00000000000000E+00
 7.74596669241488E-01 6.57252030578093E-14 6.57252030578093E-14 -3.00000000000000E+00 3.00000000000000E+00
 7.80000000000000E-01 8.40000000000005E-02 8.40000000000005E-02 -3.00000000000000E+00 3.00000000000000E+00
 7.90000000000000E-01 2.41000000000001E-01 2.41000000000001E-01 -3.00000000000000E+00 3.00000000000000E+00
 8.00000000000000E-01 4.00000000000001E-01 4.00000000000001E-01 -3.00000000000000E+00 3.00000000000000E+00
 8.10000000000000E-01 5.61000000000002E-01 5.61000000000002E-01 -3.00000000000000E+00 3.00000000000000E+00
 8.20000000000000E-01 7.24000000000001E-01 7.24000000000001E-01 -3.00000000000000E+00 3.00000000000000E+00
 8.30000000000000E-01 8.89000000000001E-01 8.89000000000001E-01 -3.00000000000000E+00 3.00000000000000E+00
 8.40000000000000E-01 1.05600000000000E+00 1.05600000000000E+00 -3.00000000000000E+00 3.00000000000000E+00
 8.50000000000000E-01 1.22500000000000E+00 1.22500000000000E+00 -3.00000000000000E+00 3.00000000000000E+00
 8.60000000000000E-01 1.39600000000000E+00 1.39600000000000E+00 -3.00000000000000E+00 3.00000000000000E+00
 8.70000000000000E-01 1.56900000000000E+00 1.56900000000000E+00 -3.00000000000000E+00 3.00000000000000E+00
 8.80000000000000E-01 1.74400000000000E+00 1.74400000000000E+00 -3.00000000000000E+00 3.00000000000000E+00
 8.90000000000000E-01 1.92100000000000E+00 1.92100000000000E+00 -3.00000000000000E+00 3.00000000000000E+00
 8.94427190999932E-01 2.00000000000029E+00 2.00000000000029E+00 -3.00000000000000E+00 3.00000000000000E+00
 8.94427190999932E-01 2.91322521661641E-13 2.91322521661641E-13 -4.00000000000000E+00 4.00000000000000E+00
 9.00000000000000E-01 1.00000000000001E-01 1.00000000000001E-01 -4.00000000000000E+00 4.00000000000000E+00
 9.10000000000000E-01 2.81000000000001E-01 2.81000000000001E-01 -4.00000000000000E+00 4.00000000000000E+00
 9.20000000000000E-01 4.64000000000000E-01 4.64000000000000E-01 -4.00000000000000E+00 4.00000000000000E+00
 9.30000000000000E-01 6.49000000000001E-01 6.49000000000001E-01 -4.00000000000000E+00 4.00000000000000E+00
 9.40000000000000E-01 8.36000000000002E-01 8.36000000000002E-01 -4.00000000000000E+00 4.00000000000000E+00
 9.50000000000000E-01 1.02500000000000E+00 1.02500000000000E+00 -4.00000000000000E+00 4.00000000000000E+00
 9.60000000000000E-01 1.21600000000000E+00 1.21600000000000E+00 -4.00000000000000E+00 4.00000000000000E+00
 9.70000000000000E-01 1.40900000000000E+00 1.40900000000000E+00 -4.00000000000000E+00 4.00000000000000E+00
 9.80000000000000E-01 1.60400000000000E+00 1.60400000000000E+00 -4.00000000000000E+00 4.00000000000000E+00
 9.90000000000000E-01 1.80100000000000E+00 1.80100000000000E+00 -4.00000000000000E+00 4.00000000000000E+00
 1.00000000000000E+00 2.00000000000000E+00 2.00000000000000E+00 -4.00000000000000E+00 4.00000000000000E+00
 1.00000000000001E+00 2.00000000000022E+00 2.00000000000022E+00 -4.00000000000000E+00 4.00000000000000E+00
 1.00000000000001E+00 2.16715534406831E-13 2.16715534406831E-13 -5.00000000000000E+00 5.00000000000000E+00
 1.01000000000000E+00 2.01000000000001E-01 2.01000000000001E-01 -5.00000000000000E+00 5.00000000000000E+00
 1.02000000000000E+00 4.04000000000000E-01 4.04000000000000E-01 -5.00000000000000E+00 5.00000000000000E+00
 1.03000000000000E+00 6.09000000000000E-01 6.09000000000000E-01 -5.00000000000000E+00 5.00000000000000E+00
 1.04000000000000E+00 8.16000000000001E-01 8.16000000000001E-01 -5.00000000000000E+00 5.00000000000000E+00
 1.05000000000000E+00 1.02500000000000E+00 1.02500000000000E+00 -5.00000000000000E+00 5.00000000000000E+00
 1.06000000000000E+00 1.23600000000000E+00 1.23600000000000E+00 -5.00000000000000E+00 5.00000000000000E+00
 1.07000000000000E+00 1.44900000000000E+00 1.44900000000000E+00 -5.00000000000000E+00 5.00000000000000E+00
 1.08000000000000E+00 1.66400000000000E+00 1.66400000000000E+00 -5.00000000000000E+00 5.00000000000000E+00
 1.09000000000000E+00 1.88100000000000E+00 1.88100000000000E+00 -5.00000000000000E+00 5.00000000000000E+00
 1.09544511501033E+00 2.00000000000006E+00 2.00000000000006E+00 -5.00000000000000E+00 5.00000000000000E+00
 1.09544511501033E+00 5.68434188608080E-14 5.68434188608080E-14 -6.00000000000000E+00 6.00000000000000E+00
 1.10000000000000E+00 1.00000000000001E-01 1.00000000000001E-01 -6.00000000000000E+00 6.00000000000000E+00
 1.11000000000000E+00 3.21000000000002E-01 3.21000000000002E-01 -6.00000000000000E+00 6.00000000000000E+00
 1.12000000000000E+00 5.44000000000002E-01 5.44000000000002E-01 -6.00000000000000E+00 6.00000000000000E+00
 1.13000000000000E+00 7.69000000000004E-01 7.69000000000004E-01 -6.00000000000000E+00 6.00000000000000E+00
 1.14000000000000E+00 9.96000000000002E-01 9.96000000000002E-01 -6.00000000000000E+00 6.00000000000000E+00
 1.15000000000000E+00 1.22500000000000E+00 1.22500000000000E+00 -6.00000000000000E+00 6.00000000000000E+00
 1.16000000000000E+00 1.45600000000000E+00 1.45600000000000E+00 -6.00000000000000E+00 6.00000000000000E+00
 1.17000000000000E+00 1.68900000000000E+00 1.68900000000000E+00 -6.00000000000000E+00 6.00000000000000E+00
 1.18000000000000E+00 1.92400000000000E+00 1.92400000000000E+00 -6.00000000000000E+00 6.00000000000000E+00
 1.18321595661993E+00 2.00000000000028E+00 2.00000000000028E+00 -6.00000000000000E+00 6.00000000000000E+00
 1.18321595661993E+00 2.78888023785839E-13 2.78888023785839E-13 -7.00000000000000E+00 7.00000000000000E+00
 1.19000000000000E+00 1.61000000000000E-01 1.61000000000000E-01 -7.00000000000000E+00 7.00000000000000E+00
 1.20000000000000E+00 3.99999999999999E-01 3.99999999999999E-01 -7.00000000000000E+00 7.00000000000000E+00
 1.21000000000000E+00 6.41000000000000E-01 6.41000000000000E-01 -7.00000000000000E+00 7.00000000000000E+00
 1.22000000000000E+00 8.84000000000000E-01 8.84000000000000E-01 -7.00000000000000E+00 7.00000000000000E+00
 1.23000000000000E+00 1.12900000000000E+00 1.12900000000000E+00 -7.00000000000000E+00 7.00000000000000E+00
 1.24000000000000E+00 1.37600000000000E+00 1.37600000000000E+00 -7.00000000000000E+00 7.00000000000000E+00
 1.25000000000000E+00 1.62500000000000E+00 1.62500000000000E+00 -7.00000000000000E+00 7.00000000000000E+00
 1.26000000000000E+00 1.87600000000000E+00 1.87600000000000E+00 -7.00000000000000E+00 7.00000000000000E+00
 1.26491106406735E+00 2.00000000000003E+00 2.00000000000003E+00 -7.00000000000000E+00 7.00000000000000E+00
 1.26491106406735E+00 2.84217094304040E-14 2.84217094304040E-14 -8.00000000000000E+00 8.00000000000000E+00
 1.27000000000000E+00 1.29000000000001E-01 1.29000000000001E-01 -8.00000000000000E+00 8.00000000000000E+00
 1.28000000000000E+00 3.84000000000000E-01 3.84000000000000E-01 -8.00000000000000E+00 8.00000000000000E+00
 1.29000000000000E+00 6.41000000000002E-01 6.41000000000002E-01 -8.00000000000000E+00 8.00000000000000E+00
 1.30000000000000E+00 9.00000000000002E-01 9.00000000000002E-01 -8.00000000000000E+00 8.00000000000000E+00
 1.31000000000000E+00 1.16100000000000E+00 1.16100000000000E+00 -8.00000000000000E+00 8.00000000000000E+00
 1.32000000000000E+00 1.42400000000000E+00 1.42400000000000E+00 -8.00000000000000E+00 8.00000000000000E+00
 1.33000000000000E+00 1.68900000000000E+00 1.68900000000000E+00 -8.00000000000000E+00 8.00000000000000E+00
 1.34000000000000E+00 1.95600000000000E+00 1.95600000000000E+00 -8.00000000000000E+00 8.00000000000000E+00
 1.34164078649989E+00 2.00000000000039E+00 2.00000000000039E+00 -8.00000000000000E+00 8.00000000000000E+00
 1.34164078649989E+00 3.87245790989255E-13 3.87245790989255E-13 -9.00000000000000E+00 9.00000000000000E+00
 1.35000000000000E+00 2.25000000000001E-01 2.25000000000001E-01 -9.00000000000000E+00 9.00000000000000E+00
 1.36000000000000E+00 4.96000000000002E-01 4.96000000000002E-01 -9.00000000000000E+00 9.00000000000000E+00
 1.37000000000000E+00 7.69000000000002E-01 7.69000000000002E-01 -9.00000000000000E+00 9.00000000000000E+00
 1.38000000000000E+00 1.04400000000000E+00 1.04400000000000E+00 -9.00000000000000E+00 9.00000000000000E+00
 1.39000000000000E+00 1.32100000000001E+00 1.32100000000001E+00 -9.00000000000000E+00 9.00000000000000E+00
 1.40000000000000E+00 1.60000000000000E+00 1.60000000000000E+00 -9.00000000000000E+00 9.00000000000000E+00
 1.41000000000000E+00 1.88100000000000E+00 1.88100000000000E+00 -9.00000000000000E+00 9.00000000000000E+00
 1.41421356237311E+00 2.00000000000036E+00 2.00000000000036E+00 -9.00000000000000E+00 9.00000000000000E+00
 1.41421356237311E+00 3.58824081558851E-13 3.58824081558851E-13 -1.00000000000000E+01 1.00000000000000E+01
 1.42000000000000E+00 1.64000000000001E-01 1.64000000000001E-01 -1.00000000000000E+01 1.00000000000000E+01
 1.43000000000000E+00 4.48999999999998E-01 4.48999999999998E-01 -1.00000000000000E+01 1.00000000000000E+01
 1.44000000000000E+00 7.35999999999997E-01 7.35999999999997E-01 -1.00000000000000E+01 1.00000000000000E+01
 1.45000000000000E+00 1.02500000000000E+00 1.02500000000000E+00 -1.00000000000000E+01 1.00000000000000E+01
 1.46000000000000E+00 1.31600000000000E+00 1.31600000000000E+00 -1.00000000000000E+01 1.00000000000000E+01
 1.47000000000000E+00 1.60900000000000E+00 1.60900000000000E+00 -1.00000000000000E+01 1.00000000000000E+01
 1.48000000000000E+00 1.90400000000000E+00 1.90400000000000E+00 -1.00000000000000E+01 1.00000000000000E+01
 1.48323969741913E+00 2.00000000000000E+00 2.00000000000000E+00 -1.00000000000000E+01 1.00000000000000E+01
 1.48323969741913E+00 0.00000000000000E+00 0.00000000000000E+00 -1.10000000000000E+01 1.10000000000000E+01
 1.49000000000000E+00 2.01000000000001E-01 2.01000000000001E-01 -1.10000000000000E+01 1.10000000000000E+01
 1.50000000000000E+00 5.00000000000000E-01 5.00000000000000E-01 -1.10000000000000E+01 1.10000000000000E+01
 1.51000000000000E+00 8.01000000000002E-01 8.01000000000002E-01 -1.10000000000000E+01 1.10000000000000E+01
 1.52000000000000E+00 1.10400000000000E+00 1.10400000000000E+00 -1.10000000000000E+01 1.10000000000000E+01
 1.53000000000000E+00 1.40900000000000E+00 1.40900000000000E+00 -1.10000000000000E+01 1.10000000000000E+01
 1.54000000000000E+00 1.71600000000000E+00 1.71600000000000E+00 -1.10000000000000E+01 1.10000000000000E+01
 1.54919333848298E+00 2.00000000000050E+00 2.00000000000050E+00 -1.10000000000000E+01 1.10000000000000E+01
 1.54919333848298E+00 5.04485342389671E-13 5.04485342389671E-13 -1.20000000000000E+01 1.20000000000000E+01
 1.55000000000000E+00 2.50000000000021E-02 2.50000000000021E-02 -1.20000000000000E+01 1.20000000000000E+01
 1.56000000000000E+00 3.36000000000002E-01 3.36000000000002E-01 -1.20000000000000E+01 1.20000000000000E+01
 1.57000000000000E+00 6.49000000000001E-01 6.49000000000001E-01 -1.20000000000000E+01 1.20000000000000E+01
 1.58000000000000E+00 9.64000000000006E-01 9.64000000000006E-01 -1.20000000000000E+01 1.20000000000000E+01
 1.59000000000000E+00 1.28100000000000E+00 1.28100000000000E+00 -1.20000000000000E+01 1.20000000000000E+01
 1.60000000000000E+00 1.60000000000000E+00 1.60000000000000E+00 -1.20000000000000E+01 1.20000000000000E+01
 1.61000000000000E+00 1.92100000000000E+00 1.92100000000000E+00 -1.20000000000000E+01 1.20000000000000E+01
 1.61245154965971E+00 2.00000000000004E+00 2.00000000000004E+00 -1.20000000000000E+01 1.20000000000000E+01
 1.61245154965971E+00 4.26325641456060E-14 4.26325641456060E-14 -1.30000000000000E+01 1.30000000000000E+01
 1.62000000000000E+00 2.44000000000007E-01 2.44000000000007E-01 -1.30000000000000E+01 1.30000000000000E+01
 1.63000000000000E+00 5.69000000000003E-01 5.69000000000003E-01 -1.30000000000000E+01 1.30000000000000E+01
 1.64000000000000E+00 8.96000000000004E-01 8.96000000000004E-01 -1.30000000000000E+01 1.30000000000000E+01
 1.65000000000000E+00 1.22500000000000E+00 1.22500000000000E+00 -1.30000000000000E+01 1.30000000000000E+01
 1.66000000000000E+00 1.55600000000000E+00 1.55600000000000E+00 -1.30000000000000E+01 1.30000000000000E+01
 1.67000000000000E+00 1.88900000000000E+00 1.88900000000000E+00 -1.30000000000000E+01 1.30000000000000E+01
 1.67332005306816E+00 2.00000000000041E+00 2.00000000000041E+00 -1.30000000000000E+01 1.30000000000000E+01
 1.67332005306816E+00 4.12114786740858E-13 4.12114786740858E-13 -1.40000000000000E+01 1.40000000000000E+01
 1.68000000000000E+00 2.23999999999997E-01 2.23999999999997E-01 -1.40000000000000E+01 1.40000000000000E+01
 1.69000000000000E+00 5.60999999999996E-01 5.60999999999996E-01 -1.40000000000000E+01 1.40000000000000E+01
 1.70000000000000E+00 8.99999999999999E-01 8.99999999999999E-01 -1.40000000000000E+01 1.40000000000000E+01
 1.71000000000000E+00 1.24100000000000E+00 1.24100000000000E+00 -1.40000000000000E+01 1.40000000000000E+01
 1.72000000000000E+00 1.58400000000000E+00 1.58400000000000E+00 -1.40000000000000E+01 1.40000000000000E+01
 1.73000000000000E+00 1.92900000000000E+00 1.92900000000000E+00 -1.40000000000000E+01 1.40000000000000E+01
 1.73205080756888E+00 2.00000000000017E+00 2.00000000000017E+00 -1.40000000000000E+01 1.40000000000000E+01
 1.73205080756888E+00 1.74082970261225E-13 1.74082970261225E-13 -1.50000000000000E+01 1.50000000000000E+01
 1.74000000000000E+00 2.76000000000000E-01 2.76000000000000E-01 -1.50000000000000E+01 1.50000000000000E+01
 1.75000000000000E+00 6.25000000000000E-01 6.25000000000000E-01 -1.50000000000000E+01 1.50000000000000E+01
 1.76000000000000E+00 9.75999999999999E-01 9.75999999999999E-01 -1.50000000000000E+01 1.50000000000000E+01
 1.77000000000000E+00 1.32900000000000E+00 1.32900000000000E+00 -1.50000000000000E+01 1.50000000000000E+01
 1.78000000000000E+00 1.68400000000000E+00 1.68400000000000E+00 -1.50000000000000E+01 1.50000000000000E+01
 1.78885438199986E+00 2.00000000000097E+00 2.00000000000097E+00 -1.50000000000000E+01 1.50000000000000E+01
 1.78885438199986E+00 9.66338120633736E-13 9.66338120633736E-13 -1.60000000000000E+01 1.60000000000000E+01
 1.79000000000000E+00 4.09999999999968E-02 4.09999999999968E-02 -1.60000000000000E+01 1.60000000000000E+01
 1.80000000000000E+00 4.00000000000006E-01 4.00000000000006E-01 -1.60000000000000E+01 1.60000000000000E+01
 1.81000000000000E+00 7.61000000000003E-01 7.61000000000003E-01 -1.60000000000000E+01 1.60000000000000E+01
 1.82000000000000E+00 1.12400000000000E+00 1.12400000000000E+00 -1.60000000000000E+01 1.60000000000000E+01
 1.83000000000000E+00 1.48900000000000E+00 1.48900000000000E+00 -1.60000000000000E+01 1.60000000000000E+01
 1.84000000000000E+00 1.85600000000000E+00 1.85600000000000E+00 -1.60000000000000E+01 1.60000000000000E+01
 1.84390889145859E+00 2.00000000000041E+00 2.00000000000041E+00 -1.60000000000000E+01 1.60000000000000E+01
 1.84390889145859E+00 4.12114786740858E-13 4.12114786740858E-13 -1.70000000000000E+01 1.70000000000000E+01
 1.85000000000000E+00 2.25000000000001E-01 2.25000000000001E-01 -1.70000000000000E+01 1.70000000000000E+01
 1.86000000000000E+00 5.96000000000004E-01 5.96000000000004E-01 -1.70000000000000E+01 1.70000000000000E+01
 1.87000000000000E+00 9.69000000000008E-01 9.69000000000008E-01 -1.70000000000000E+01 1.70000000000000E+01
 1.88000000000000E+00 1.34400000000001E+00 1.34400000000001E+00 -1.70000000000000E+01 1.70000000000000E+01
 1.89000000000000E+00 1.72100000000000E+00 1.72100000000000E+00 -1.70000000000000E+01 1.70000000000000E+01
 1.89736659610103E+00 2.00000000000026E+00 2.00000000000026E+00 -1.70000000000000E+01 1.70000000000000E+01
 1.89736659610103E+00 2.55795384873636E-13 2.55795384873636E-13 -1.80000000000000E+01 1.80000000000000E+01
 1.90000000000000E+00 1.00000000000001E-01 1.00000000000001E-01 -1.80000000000000E+01 1.80000000000000E+01
 1.91000000000000E+00 4.81000000000002E-01 4.81000000000002E-01 -1.80000000000000E+01 1.80000000000000E+01
 1.92000000000000E+00 8.63999999999997E-01 8.63999999999997E-01 -1.80000000000000E+01 1.80000000000000E+01
 1.93000000000000E+00 1.24900000000000E+00 1.24900000000000E+00 -1.80000000000000E+01 1.80000000000000E+01
 1.94000000000000E+00 1.63600000000000E+00 1.63600000000000E+00 -1.80000000000000E+01 1.80000000000000E+01
 1.94935886896181E+00 2.00000000000049E+00 2.00000000000049E+00 -1.80000000000000E+01 1.80000000000000E+01
 1.94935886896181E+00 4.90274487674469E-13 4.90274487674469E-13 -1.90000000000000E+01 1.90000000000000E+01
 1.95000000000000E+00 2.49999999999986E-02 2.49999999999986E-02 -1.90000000000000E+01 1.90000000000000E+01
 1.96000000000000E+00 4.15999999999997E-01 4.15999999999997E-01 -1.90000000000000E+01 1.90000000000000E+01
 1.97000000000000E+00 8.08999999999997E-01 8.08999999999997E-01 -1.90000000000000E+01 1.90000000000000E+01
 1.98000000000000E+00 1.20400000000000E+00 1.20400000000000E+00 -1.90000000000000E+01 1.90000000000000E+01
 1.99000000000000E+00 1.60100000000000E+00 1.60100000000000E+00 -1.90000000000000E+01 1.90000000000000E+01
 2.00000000000000E+00 2.00000000000000E+00 2.00000000000000E+00 -1.90000000000000E+01 1.90000000000000E+01
 2.00000000000000E+00 0.00000000000000E+00 0.00000000000000E+00 -2.00000000000000E+01 2.00000000000000E+01
